5 常用图形 | 庄闪闪的可视化手册
…
## [1] 0.3926991 1.1780972 1.9634954 2.7488936 3.5342917 4.3196899 5.1050881
## [8] 5.8904862

ggplot <- function(...) ggplot2::ggplot(...) + 
  scale_color_manual(values = cbp1) +
  scale_fill_manual(values = cbp1) + # note: needs to be overridden when using continuous color scales
  theme_bw()

penguins

## # A tibble: 344 × 8
##    species island    bill_length_mm bill_depth_mm flipper_length_mm body_mass_g
##    <fct>   <fct>              <dbl>         <dbl>             <int>       <int>
##  1 Adelie  Torgersen           39.1          18.7               181        3750
##  2 Adelie  Torgersen           39.5          17.4               186        3800
##  3 Adelie  Torgersen           40.3          18                 195        3250
##  4 Adelie  Torgersen           NA            NA                  NA          NA
##  5 Adelie  Torgersen           36.7          19.3               193        3450
##  6 Adelie  Torgersen           39.3          20.6               190        3650
##  7 Adelie  Torgersen           38.9          17.8               181        3625
##  8 Adelie  Torgersen           39.2          19.6               195        4675
##  9 Adelie  Torgersen           34.1          18.1               193        3475
## 10 Adelie  Torgersen           42            20.2               190        4250
## # … with 334 more rows, and 2 more variables: sex <fct>, year <int>
…
penguins %>%
  gather("key", "value", bill_length_mm:body_mass_g) %>%
  group_by(species, sex, island, key) %>%
  summarise(n = n(),
            sum = sum(value),
            mean = mean(value),
            median = median(value),
            sd = sd(value),
            se = sd(value) / sqrt(n()))

## # A tibble: 52 × 10
## # Groups:   species, sex, island [13]
##    species sex    island    key            n    sum   mean median      sd     se
##    <fct>   <fct>  <fct>     <chr>      <int>  <dbl>  <dbl>  <dbl>   <dbl>  <dbl>
##  1 Adelie  female Biscoe    bill_dept…    22   389.   17.7   17.7   1.09   0.233
##  2 Adelie  female Biscoe    bill_leng…    22   822.   37.4   37.8   1.76   0.376
##  3 Adelie  female Biscoe    body_mass…    22 74125  3369.  3375   343.    73.2  
##  4 Adelie  female Biscoe    flipper_l…    22  4118   187.   187     6.74   1.44 
##  5 Adelie  female Dream     bill_dept…    27   476.   17.6   17.8   0.897  0.173
##  6 Adelie  female Dream     bill_leng…    27   997.   36.9   36.8   2.09   0.402
##  7 Adelie  female Dream     body_mass…    27 90300  3344.  3400   212.    40.8  
##  8 Adelie  female Dream     flipper_l…    27  5072   188.   188     5.51   1.06 
##  9 Adelie  female Torgersen bill_dept…    24   421.   17.6   17.4   0.880  0.180
## 10 Adelie  female Torgersen bill_leng…    24   901.   37.6   37.6   2.21   0.451
## # … with 42 more rows

penguins %>%
  group_by(species, sex, island, year) %>%
  summarise_each(funs(sum, 
                      mean, 
                      median, 
                      sd, 
                      se = sd(.) / sqrt(n())
                      )
                 )

## # A tibble: 35 × 24
## # Groups:   species, sex, island [13]
##    species sex   island  year bill_length_mm_… bill_depth_mm_s… flipper_length_…
##    <fct>   <fct> <fct>  <int>            <dbl>            <dbl>            <int>
##  1 Adelie  fema… Biscoe  2007             187.             92.9              909
##  2 Adelie  fema… Biscoe  2008             330.            155               1679
##  3 Adelie  fema… Biscoe  2009             305.            142.              1530
##  4 Adelie  fema… Dream   2007             341.            161.              1665
##  5 Adelie  fema… Dream   2008             290.            142.              1512
##  6 Adelie  fema… Dream   2009             366.            173.              1895
##  7 Adelie  fema… Torge…  2007             306.            145.              1501
##  8 Adelie  fema… Torge…  2008             293.            139.              1520
##  9 Adelie  fema… Torge…  2009             302.            137.              1498
## 10 Adelie  male  Biscoe  2007             196.             91.5              908
## # … with 25 more rows, and 17 more variables: body_mass_g_sum <int>,
## #   bill_length_mm_mean <dbl>, bill_depth_mm_mean <dbl>,
## #   flipper_length_mm_mean <dbl>, body_mass_g_mean <dbl>,
## #   bill_length_mm_median <dbl>, bill_depth_mm_median <dbl>,
## #   flipper_length_mm_median <dbl>, body_mass_g_median <dbl>,
## #   bill_length_mm_sd <dbl>, bill_depth_mm_sd <dbl>,
## #   flipper_length_mm_sd <dbl>, body_mass_g_sd <dbl>, …
…
